<svg width="37" height="34" viewBox="0 0 37 34" fill="none" xmlns="http://www.w3.org/2000/svg">
<g clip-path="url(#clip0_58_8820)">
<path d="M18.9959 21.3385L0.590332 10.709V22.9182L18.9959 33.5477V21.3385Z" fill="#EFC58B"/>
<path d="M36.7342 23.2963L18.9961 33.5476V21.3384L36.7342 11.0815V23.2963Z" fill="#C79D5C"/>
<path d="M20.2808 26.9787V30.8779L23.6571 28.9255V25.0264L20.2808 26.9787ZM20.4309 30.622V27.0677L23.5124 25.2878V28.8421L20.4309 30.622Z" fill="#995D43"/>
<path d="M22.745 26.5782L22.2444 26.5615L22.0108 26.7006V26.5838L21.983 26.5671L21.9329 26.5949L21.9051 26.6505V26.7618L21.6715 26.8953L21.1764 27.4849L20.8872 28.1801V28.4082L21.8995 27.8186V29.0256L21.6937 29.3816L21.5769 29.4483L21.3711 29.3315V29.1591V29.1647V29.1313L21.3377 29.1146L21.2933 29.1369L21.2599 29.1925V29.2259V29.4483L21.5324 29.6041L21.7438 29.4873L22.0163 29.0145V27.7574L23.0287 27.1678V26.9398L22.745 26.5782Z" fill="#995D43"/>
<path d="M24.3691 24.6201V28.5248L27.7454 26.5725V22.6733L24.3691 24.6257V24.6201ZM24.5193 28.2634V24.7091L27.5953 22.9292V26.4835L24.5193 28.2634Z" fill="#995D43"/>
<path d="M31.8338 20.3096L28.4575 22.2619V26.1611L31.8338 24.2087V20.3096ZM28.6077 25.9052V22.3509L31.6892 20.571V24.1253L28.6077 25.9052Z" fill="#995D43"/>
<path d="M25.0586 26.2442L25.3033 26.3833L25.4201 26.3166V27.3456L25.3033 27.4179L25.0586 27.6515V27.6682L25.8985 27.1787V27.162L25.6538 27.2121L25.5369 27.2844V26.2498L25.6538 26.1831L25.8985 25.7603V24.4087L25.0586 24.8926V26.2442Z" fill="#995D43"/>
<path d="M26.2158 25.5714L26.4606 25.716L26.5774 25.6493V26.6783L26.4606 26.745L26.2158 26.9786V26.9953L27.0557 26.5114V26.4947L26.811 26.5448L26.6942 26.6115V25.5825L26.811 25.5158L27.0557 25.0875V23.7358L26.2158 24.2198V25.5714ZM26.2881 24.2643L26.9779 23.8638V25.0652L26.7498 25.4546L26.455 25.6214L26.2826 25.5213V24.2587L26.2881 24.2643Z" fill="#995D43"/>
<path d="M30.7321 22.0281L30.8044 21.9113L30.7766 21.8947L30.721 22.0003L30.6432 22.0448L30.5876 22.0114V21.9225L30.6432 21.8279L30.721 21.7834L30.7766 21.8168L30.8044 21.7723L30.7321 21.7334L30.6265 21.7946L30.5542 21.928V22.0504L30.6265 22.0893L30.7321 22.0281Z" fill="#995D43"/>
<path d="M29.6474 23.5188L29.7141 23.3965L29.6918 23.3854L29.6307 23.4855L29.5584 23.53L29.5028 23.5021V23.4132L29.5584 23.3187L29.6307 23.2742L29.6918 23.3075L29.7141 23.263L29.6474 23.2241L29.5417 23.2853L29.4639 23.4132V23.5355L29.5417 23.58L29.6474 23.5188Z" fill="#995D43"/>
<path d="M30.293 22.6014V21.8616L30.2096 21.8115L30.0872 21.8783L30.0038 22.0285V23.102L29.7702 23.508L29.4253 23.7083V23.7583L29.7868 23.547L30.0038 23.1743V23.9975L29.8258 24.3034V24.6093L30.0149 24.7206L30.2819 24.5648L30.471 24.2367V23.9307L30.293 23.8306V22.6681L30.5266 22.2621L30.8715 22.0618V22.0118L30.5099 22.2231L30.293 22.5958V22.6014ZM30.2485 22.6792L30.0483 23.0297V22.0285L30.1095 21.9228L30.1929 21.8727L30.2541 21.9061V22.6737L30.2485 22.6792Z" fill="#995D43"/>
<path d="M18.334 0.452148L36.734 11.0816L18.9959 21.3385L0.590332 10.709L18.334 0.452148Z" fill="#F7E6BB"/>
<path d="M10.9583 16.6607L10.0739 16.8609L8.60547 15.3035L26.3602 5.05225L28.7131 6.415L10.9583 16.6607Z" fill="#B88F5A"/>
<path d="M10.9583 20.1313L8.60547 18.7741V15.3032L10.9583 16.6604V20.1313Z" fill="#A16739"/>
<path d="M24.6192 21.8555L24.0073 22.2115C24.0073 22.2115 23.9795 22.2393 23.9739 22.256L23.846 22.8234C23.8182 22.9513 23.7904 23.0625 23.668 23.1348C23.5901 23.1793 23.5846 23.107 23.6068 23.0014L23.9906 21.3104C24.0129 21.2047 24.0629 21.0991 24.1408 21.0546C24.2632 20.9822 24.2409 21.0879 24.2187 21.1825L24.1019 21.6831C24.1019 21.6831 24.113 21.7165 24.1352 21.7053L24.7471 21.3494C24.7471 21.3494 24.7749 21.3215 24.7805 21.3049L24.8695 20.9155C24.9863 20.3982 24.7971 20.2425 24.2965 20.5317C23.6402 20.9155 23.3676 21.455 23.262 21.9223L22.9783 23.1682C22.8726 23.6355 22.8948 24.0026 23.579 23.6076C24.0629 23.324 24.43 22.8289 24.5468 22.3116L24.647 21.8722C24.647 21.8722 24.6358 21.8388 24.6136 21.85L24.6192 21.8555Z" fill="#995D43"/>
<path d="M25.8153 20.115C25.3203 20.4042 25.0422 20.7435 24.9198 21.2719L24.8697 21.4833C24.8697 21.4833 24.8809 21.5167 24.9031 21.5055L25.4482 21.1885C25.4482 21.1885 25.476 21.1607 25.4816 21.144L25.5817 20.6934C25.5984 20.6211 25.6429 20.5321 25.7152 20.4932C25.7875 20.4543 25.8098 20.5043 25.7931 20.5711L25.7208 20.877C25.6874 21.0161 25.6484 21.0772 25.2424 21.4499C24.803 21.8504 24.764 21.9561 24.7029 22.2342L24.6306 22.5568C24.5582 22.8627 24.6584 22.9851 24.942 22.8238C25.0811 22.7459 25.2202 22.6069 25.337 22.4678C25.3592 22.44 25.387 22.4456 25.3815 22.4734C25.3815 22.4956 25.3926 22.5067 25.4093 22.4956L25.9822 22.1619C25.9822 22.1619 26.01 22.1341 26.0156 22.1174L26.4105 20.382C26.5384 19.8202 26.2825 19.8369 25.8209 20.1094L25.8153 20.115ZM25.5873 21.4722L25.4649 22.0173C25.4538 22.0729 25.4037 22.1619 25.3203 22.2064C25.2591 22.2398 25.2368 22.1953 25.2535 22.1285L25.3091 21.8782C25.3425 21.7336 25.4148 21.6057 25.5372 21.4666C25.5594 21.4388 25.5928 21.4388 25.5873 21.4722Z" fill="#995D43"/>
<path d="M27.4785 18.741L26.8889 19.0859C26.8889 19.0859 26.8611 19.1137 26.8556 19.1304L26.1992 21.995C26.1992 21.995 26.2103 22.0283 26.2326 22.0172L26.8222 21.6724C26.8222 21.6724 26.85 21.6445 26.8556 21.6279L27.5119 18.7633C27.5119 18.7633 27.5008 18.7299 27.4785 18.741Z" fill="#995D43"/>
<path d="M27.6676 18.9521L28.2571 18.6074C28.2571 18.6074 28.2849 18.5796 28.2904 18.5629L28.3571 18.2682C28.3571 18.2682 28.346 18.2348 28.3238 18.2459L27.7344 18.5907C27.7344 18.5907 27.7066 18.6185 27.701 18.6352L27.6343 18.9299C27.6343 18.9299 27.6454 18.9632 27.6676 18.9521Z" fill="#995D43"/>
<path d="M28.2068 18.7742L27.6172 19.1191C27.6172 19.1191 27.5893 19.1469 27.5838 19.1636L27.0498 21.4998C27.0498 21.4998 27.0609 21.5331 27.0832 21.522L27.6728 21.1771C27.6728 21.1771 27.7006 21.1493 27.7062 21.1326L28.2401 18.7965C28.2401 18.7965 28.229 18.7631 28.2068 18.7742Z" fill="#995D43"/>
<path d="M30.0646 17.2334L29.475 17.5783C29.475 17.5783 29.4472 17.6061 29.4416 17.6228L29.2915 18.2847H29.2859C29.2247 18.1957 29.0801 18.2124 28.9244 18.3014C28.5851 18.5016 28.4015 18.7853 28.3181 19.1579L28.001 20.5541C27.9176 20.8822 28.001 21.038 28.3181 20.8544C28.4905 20.7543 28.6629 20.5763 28.8075 20.3928H28.8131L28.7742 20.4929C28.763 20.5207 28.7742 20.5374 28.802 20.5263L29.4138 20.1703C29.4138 20.1703 29.4416 20.1425 29.4472 20.1258L30.1036 17.2612C30.1036 17.2612 30.0924 17.2278 30.0702 17.239L30.0646 17.2334ZM29.1913 18.7185L28.9132 19.9367C28.891 20.0312 28.8576 20.1091 28.7519 20.1703C28.6629 20.2203 28.6629 20.1592 28.6796 20.0702L28.9577 18.852C28.9855 18.7185 29.0189 18.6462 29.119 18.5906C29.2303 18.5238 29.208 18.624 29.1913 18.7185Z" fill="#995D43"/>
<path d="M31.3498 18.2236C31.3498 18.2236 31.3387 18.1902 31.3164 18.2013L30.7491 18.5351C30.7491 18.5351 30.7212 18.5629 30.7157 18.5796L30.6211 18.9856C30.5989 19.0746 30.5599 19.1692 30.4654 19.2192C30.3819 19.2693 30.3819 19.2192 30.3986 19.1191L30.5377 18.5184C30.5377 18.5184 30.5544 18.485 30.5711 18.4739L31.372 18.0066C31.372 18.0066 31.3998 17.9788 31.4054 17.9621L31.5167 17.4838C31.6557 16.8775 31.283 16.9276 30.966 17.1111C30.6044 17.3225 30.1483 17.7341 30.0093 18.3626L29.7923 19.3026C29.6477 19.9312 30.026 19.8589 30.3875 19.6475C30.7491 19.4361 31.1607 19.0468 31.2997 18.4238L31.3442 18.2236H31.3498ZM30.6545 18.0456L30.7157 17.7841C30.7379 17.6896 30.7713 17.6173 30.8492 17.5672C30.9437 17.5116 30.9437 17.5783 30.9271 17.6673L30.8659 17.9343C30.8659 17.9343 30.8492 17.9677 30.8325 17.9788L30.6823 18.0623C30.6823 18.0623 30.6434 18.0623 30.6489 18.04L30.6545 18.0456Z" fill="#995D43"/>
<path d="M33.2073 15.8594L32.7289 16.1376C32.7289 16.1376 32.7067 16.1598 32.7011 16.1765L32.373 17.111H32.3674L32.4119 16.36C32.4119 16.3434 32.4008 16.3322 32.3785 16.3434L31.8557 16.6493C31.8557 16.6493 31.8223 16.6827 31.8223 16.6993V17.6616C31.8223 17.6616 31.8223 17.6727 31.8167 17.6783L31.2494 19.0466C31.2383 19.0744 31.2494 19.0911 31.2772 19.08L31.8223 18.7629C31.8223 18.7629 31.8445 18.7407 31.8501 18.7296L32.2061 17.8007H32.2117L32.156 18.5293C32.156 18.5516 32.1672 18.5571 32.1894 18.546L32.6733 18.2623C32.6733 18.2623 32.7067 18.229 32.7067 18.2123L32.7234 17.1443C32.7234 17.1443 32.7234 17.1332 32.7234 17.1276L33.2295 15.8928C33.2407 15.865 33.2296 15.8483 33.2017 15.8594H33.2073Z" fill="#995D43"/>
</g>
<defs>
<clipPath id="clip0_58_8820">
<rect width="36.1436" height="33.0955" fill="white" transform="translate(0.590332 0.452148)"/>
</clipPath>
</defs>
</svg>
